government = monarchy
add_government_reform = autocracy_reform
government_rank = 1
primary_culture = olavish
religion = skaldhyrric_faith
technology_group = tech_cannorian
capital = 984
national_focus = DIP

1000.1.1 = { set_estate_privilege = estate_mages_organization_religious }

1422.7.19 = {
	monarch = {
		name = "Karl II"
		dynasty = "Ebonfrost"
		birth_date = 1382.5.1
		adm = 2
		dip = 0
		mil = 6
	}
	add_ruler_personality = strict_personality
	add_ruler_personality = cruel_personality
	heir = {
		name = "Gunnar"
		monarch_name = "Gunnar I"
		dynasty = "Ebonfrost"
		birth_date = 1400.5.12
		death_date = 1470.3.10
		claim = 95
		adm = 4
		dip = 1
		mil = 4
	}
	add_heir_personality = fertile_personality
	queen = {
		country_of_origin = Z15
		dynasty = "of Urviksten"
		name = "Jytte"
		birth_date = 1381.10.4
		death_date = 1459.9.1
		female = yes
		adm = 2
		dip = 3
		mil = 2
	}
}