#320 - Rhodes

owner = A60
controller = A60
add_core = A60
culture = arannese
religion = regent_court

hre = yes

base_tax = 3
base_production = 3
base_manpower = 3

trade_goods = livestock

capital = ""

is_city = yes









