#317 - Countsbridge

owner = A48
controller = A48
add_core = A48
culture = wexonard
religion = regent_court

hre = yes

base_tax = 1
base_production = 2
base_manpower = 1

trade_goods = wool

capital = ""

is_city = yes











