#87 - Calais | 

owner = A14
controller = A14
add_core = A14
culture = low_lorentish
religion = regent_court

hre = no

base_tax = 5
base_production = 4
base_manpower = 2

trade_goods = grain

capital = ""

is_city = yes








add_permanent_province_modifier = {
	name = half_elven_minority_coexisting_small
	duration = -1
}