#Country Name: Please see filename.

graphical_culture = southamericagfx

color = { 125  129  88 }



historical_idea_groups = {
	economic_ideas
	offensive_ideas
	influence_ideas
	defensive_ideas	
	administrative_ideas	
	trade_ideas
	quality_ideas
	innovativeness_ideas
}

historical_units = {
	native_indian_archer
	native_indian_tribal_warfare
	algonkin_tomahawk_charge
	native_indian_horsemen
	huron_arquebusier
	commanche_swarm
	native_indian_mountain_warfare
	american_western_franchise_warfare
}

monarch_names = {

	#Generic Kheionai Names
	"Adrahelhos #0" = 10
	"Alaronthis #0" = 10
	"Aldarius #0" = 10
	"Aldarones #0" = 10
	"Alvarionides #0" = 10
	"Andrellionides #0" = 10
	"Aranthis #0" = 10
	"Ardores #0" = 10
	"Ardorianus #0" = 10
	"Arpholophes #0" = 10
	"Artoriansis #0" = 10
	"Darandiles #0" = 10
	"Darastarthes #0" = 10
	"Denarion #0" = 10
	"Dorendorus #0" = 10
	"Eboris #0" = 10
	"Elanilinius #0" = 10
	"Eledas #0" = 10
	"Elethodas #0" = 10
	"Elethodus #0" = 10
	"Elriandorius #0" = 10
	"Elrianes #0" = 10
	"Eranian #0" = 10
	"Erelas #0" = 10
	"Erlanilus #0" = 10
	"Evindalus #0" = 10
	"Filinas #0" = 10
	"Finorius #0" = 10
	"Galendhos #0" = 10
	"Galenstos #0" = 10
	"Galindilius #0" = 10
	"Gelehores #0" = 10
	"Gelmonias #0" = 10
	"Ibenionios #0" = 10
	"Irenthenes #0" = 10
	"Ivrandilios #0" = 10
	"Ivrandinios #0" = 10
	"Ivranes #0" = 10
	"Jahekles #0" = 10
	"Jaherios #0" = 10
	"Kalrodinsis #0" = 10
	"Keladopholes #0" = 10
	"Kelesades #0" = 10
	"Kelesadus #0" = 10
	"Kelindas #0" = 10
	"Kelodisthos #0" = 10
	"Kelodus #0" = 10
	"Kemnar #0" = 10
	"Kemnariles #0" = 10
	"Kemnarius #0" = 10
	"Kerodinsis #0" = 10
	"Munakles #0" = 10
	"Nesterus #0" = 10
	"Olorises #0" = 10
	"Pelodines #0" = 10
	"Serondarus #0" = 10
	"Serondas #0" = 10
	"Serondorus #0" = 10
	"Taelarian #0" = 10
	"Taelarides #0" = 10
	"Taelarios #0" = 10
	"Thalanthenes #0" = 10
	"Thalanthones #0" = 10
	"Thelrionthos #0" = 10
	"Thirendires #0" = 10
	"Thirendisus #0" = 10
	"Threthines #0" = 10
	"Triandiles #0" = 10
	"Ultaris #0" = 10
	"Urionis #0" = 10
	"Vakeres #0" = 10
	"Varamales #0" = 10
	"Varamanes #0" = 10
	"Varamelas #0" = 10
	"Varamelus #0" = 10
	"Varanarius #0" = 10
	"Varilones #0" = 10
	"Vindalenes #0" = 10
	
	"Alarawthe #0" = -20
	"Alariandelthe #0" = -20
	"Alarina #0" = -20
	"Alerathla #0" = -20
	"Amarien #0" = -20
	"Ariathen #0" = -20
	"Ariathra #0" = -20
	"Calassa #0" = -20
	"Devenithe #0" = -20
	"Eboria #0" = -20
	"Elarina #0" = -20
	"Elethene #0" = -20
	"Erelassa #0" = -20
	"Erlandora #0" = -20
	"Filinara #0" = -20
	"Galindora #0" = -20
	"Imarhila #0" = -20
	"Isehrine #0" = -20
	"Iserana #0" = -20
	"Iserandel #0" = -20
	"Istradora #0" = -20
	"Ivrandelthe #0" = -20
	"Ivrandielthe #0" = -20
	"Jesimia #0" = -20
	"Keladora #0" = -20
	"Kemnara #0" = -20
	"Ladrindethe #0" = -20
	"Lanaharia #0" = -20
	"Lanalora #0" = -20
	"Leliatha #0" = -20
	"Leslindethe #0" = -20
	"Liandithe #0" = -20
	"Merialethe #0" = -20
	"Mihtriele #0" = -20
	"Narawenike #0" = -20
	"Nathalymia #0" = -20
	"Selussa #0" = -20
	"Serondora #0" = -20
	"Shachytia #0" = -20
	"Shaerannia #0" = -20
	"Sharindetria #0" = -20
	"Shiavera #0" = -20
	"Tanelia #0" = -20
	"Thaliandhila #0" = -20
	"Valanne #0" = -20
	"Varidora #0" = -20
	"Varilidora #0" = -20
	"Varinnassa #0" = -20
	"Veharhila #0" = -20
	"Veharine #0" = -20
	"Vesike #0" = -20
	"Zaleria #0" = -20
	
}

leader_names = {

	#Just random greeky stuff to be honest
	Akropolites Aoinos Apokaukos Argyros
	Basileous Batatzes Botaneiates Boumbalis
	Choniates Choumnos
	Diasorenos Diogenes Doukas
	Gabras
	Iagaris
	Kantakuzenos Kaukadenos
	Laskaris
	Melissinos Melisurgos Mikrulakes Monomakos Mouzalon
	Nestongos
	Palaiologos Paraspondylos Phocas Phouskarnaki Phrangopoulos Psellos
	Rhadinos Rhangabe Rhodocanakis Romanos
	Syropoulos
	Tornikes
	Zarides Zimisces
	
	#New elfy ones
	Takes Makes Ekes Petrokes Petropus Politarus Delis Delos Kondos Konda Hasogos Vitakes Damasos Tacenus Tacenos Tacenos Venanos Venanikes Venaneous Venanyros Venansis Ducanoulos Ducanaris Aldanos Aldandenos Dranikes Drarides Dramisces Dhounes
	Ladas Elendos Elentios Aragos Aragoulos Kemenos Airos Airen Vyranos
	
	
}

ship_names = {
	Ydra Lesvos Limnos Mikonos Salamis Samos Themistoklis Evripidis Aischylos Aristofanis Archimedes Demokritos Anaxagoras Diomedes Herakles Atreas Perseas Aigyptos
	Aiolos Poseidon Athena Zeus Dias Kronos Rea Ouranos Hera Adonis Afroditi Charavgi Orion Iasonas Theseus Achilleas Mermidon Makedon Lakedemon Athineos Xenofon
	Miltiades Alexandros Megalexandros Gorgona Midia Efterpi Andriantas Demetra Estia Apollon Ermis Gorgopodaros Gorgoplefstos Artemis Aris Theofanis Theochara
	Filippos Edessa Ionia Korinthos Sparti Athenai Messina Anthosparti Kampos Argolida Argo Hephestos Hephestion Nearchos Parmenion Leonidas Averof Christos
	Christoforos "Agios Christoforos" "Vasileus Christoforos" Theodora "Agia Theodora" "Agios Theodoros" "Vasileus Theodoros" Aftokrator "Vasillisa Theodora"
	Nikephoros "Agios Nikephoros" "Vasileus Nikephoros" Pavlos "Apostolos Pavlos" "Osios Pavlos" Alexios "Agios Alexios" "Agia Alexia" Alexia "Vasileus Alexios"
	"Vasilissa Alexia" Konstantinos "Agios Konstantinos" "Konstantinos o Megas" "Vasileus Konstantinos" "Autokrator Konstantinos" Herakleios "Agios Herakleios"
	"Vasileus Herakleios" "Agios Herakleidios" "Agios Sergios" "Agios Maximos" "Agios Athanasios" "Agia Athanasia" "Agia Eleni" Eleni "Oraia Eleni" "Vasilissa Eleni"
	"Iera Zoe" "Vasilissa Zoe" Velissarios Piri Reis Aetos "Dikephalos Aetos" "Dikephalos tou Vorra" Tryfilli Olympios Delphini Delphina Apochis Nemesis Yvris
	Drakon Lykourgos Solon Kroisos Lysippos Phedias Ades Plutonas "Mpaniera tou Poseidona" Ikaros Daidalos Ikaria Imvros Fournoi Kia Naxos Chios "Christos Soter"
	Soter Soterios Sozomenos Despotis "Despotis tou Moria" Peloponissos Nafplio Athos "Agion Oros" Panagia "Panagia Parthena" "Panagia Chrysorogiatissa"
	"Panagia Pleomeni" "Panagia Dakryzousa" "Panagia Romaion" "Panagia Mitera" "Panagia Chrysospilliotisa" "Panagia Ampelokamoti" "Panagia Pigazousa"
	"Panagia Anthousa" Hektor Menelaos Aias "Aias o Telamonios" Odysseas Ithaki Tilemachos Penelopi Minoas Minotavros Tryfon Agamemnon Ifigeneia Tavrida Tavros
	Ichthys Galaxias Astir Asteras "Erythros Asteras" "Asteri tis Vithleem" "Agioi Topoi" Ierosolima Alexandreia "Doxa tou Theou" "Chara Theou" Tama Ieromartyras
	Kyprianos Archiepiskopos Episkopos Doukas Ionion Aigaion Kritikon Kriti Zoniana Herakleia Herakleion Chania Lesvos Kypros Rodos Gigantas Polyphimos Laistrygona
	Lamia Skylla Charyvdi Echidna Ofis Eva Hellespontos "Efxeinos Pontos" Prokopios Prokopia "Agios Prokopios" Prokomenos Frixos Elli Kerkyra Kyriarchos Kentavros
	Kaisar Keravnos Keratios Keraton Konstantinoupolis "Leon Skleros" Lykia Thalassolykos Megaleion "Megaleion tis Makedonias" "Mikra Asia" Morfeas Orfeas Evridiki
	Keryneia Ammochostos Ledra Pafos Akamas Amathous Evagoras Chalkanoras Grigorios Kyrillos Methodios Nike Okeanos Tyranos Orestis "Orgi Theou" Orthodoxia Loukia
	Loukiani "Agios Loukas" "Osios Loukas" "Profitis Helias" "Ai Lias" Profitis Sampson David Goliath Patrida "Ellas Patrida" Patris Mitera Pateras Pater Papas Papadia
	Diakonos Atlas Egkelados Titanas Yperion Helios "Helios Pantokrator" Diomedes Avgeas Achellos Acheros Stymfalida Lernea "Lernea Ydra" Nemea "Leon tis Nemeas" Kapros
	Erymanthea Monastiri Ouranos Nefeli Gea Thalassa Mesogeios Politis Vasilevousa Thalassokrator Pantheras Leon Pelargos Mermigkas Onos Thesallia Thesalloniki
	Theophylaktos Taxiarchos Stratilatis Oplarchigos Navarchos Sikelia Ellas Samos Samothraki Thraki Rodopi Alexandroupoli Andrianoupolis Thrylos Triton Achinos
	Asterias Xiphias Xiphomachos Xiphos Spatha Zakynthos Zoodotis Ypertatos Andrianos Anthimos Dragumanos Akritas Digenis "Digenis Akritas" Mavroskyllos Charon
	Kalymnos "Oraia Kalymnos" Psara Psaras Varrangios Gothos Pontios Mavromata Prasinomata Kastanomata Gata Gatos Magkas Foneas Karcharias Skyllopsaro Pyrofis
	Stavraetos Zenon Machairas Kykkos Anthos Korax "Mavros Korax" Phovos Dimos "Theodoros Kolokotronis" "Odysseas Andrutsos" "Georgios Karaiskakis" "Rigas Ferraios"
	"Dionysios Solomos" Dionysios Dionysos Talos Efterpi Mpoumpoulina "Manto Mavrogenous" "Konstantinos Kanaris" Nikitaras Tourkofagos Nikitas Vulgaroktonos Messologi
	Papamichalis Papakonstantinos "Agios Demetrios" "Agios Theodoros" "Agia Marina" "Agia Evlampia" "Agia Charalambia" "Agios Charalambos" "Agios Charilaos"
	"Agios Antonios" "Agia Antonia" "Agios Amvrosios" "Panagia Aggelovastachti" "Panagia Filoptochi" "Panagia Thalassofiliti" Thalassomachos Amfitriti "Thalassios Ippos"
	"Thalassios Leontas" Persoktonos "Autokrator Isavros" "Autokrato Makedon" Thekla "Agia Thekla" Papaflessas "Alexandros Ypsilantis" "Nea Ionia" Alikarnassos
	Voukefalas "Afros tou Kymmatos" "Afros tis Thalassas" Trieiris Iris Daphni Salamis Thermopyles Marathon Platees Theva "Epta Epi Thevas" Platees Dervenakia
	"Elefthero Pouli" Peristera "Oraia Peristera" Perifanos Perifani Perifania Akritikon "Eleftheros Poliorkimenos" Eleftheros Eleftheria "Eleftheria H Thanatos"
	"Vasileios Digenis Akritas" Prosfygopoulla Giofyri "Giofyrin tis Artas" Gefyra Serres Trikoupis Athanatos Athanati Styga "Agios Athanasios" "Agia Athanasia"
	Athanasia Agerochos Agerochi Atrotos Atroti Pachyammos Maa "Agia Paraskevi" "Agios Paraskevas" Larnaka Amathounta Lemesos Kolossi Kolossos Akamas Lara Onisilos
	Makarios "Agios Grigorios" Petra Kypseli Melissa Sfikas Kifinas Meliteni Kentri "Mavra Ori" Karagkiozis Nionios Nafpaktos Rodon Emporopoulla Emporas Chontros
	Chontri "Iera Odos" "Egnatia Odos" Egnatia Ignatios Thalis Efkleidis Milos Omiros Iliada Odysseia Faiakas Fylakas Chalkida Psalida Zodia Morfou Aeriko Stefana
	Oneiro Onar Ilarion "Agios Ilarion" Eftychia "Agios Eftychios" Chara Mystras "3 Charites" Nymfi Nymfes Ariadni Stratiotis Palikaras "Markos Mpotsaris"
	"Lampros Katsonis" Karavida Kavouri "Mana Kavourina" Mana "Mana Kouragio" Kouragio Voreios Notios "To Vlemma tis Theodoras" Rizokarpaso Lysis Enosis
	"Philippos o Makedon" Evropi Ypatia Aristarchos Aristos Ellada Ellinopoulla Romiopoulla Omorfi Omorfoulla Gynaika "Pyr Gyni kai Thalassa" Athlos Mpessa
	Apostolos "Pani tou Osiou" "Osio Pani" Kapetanios Kapetaneos Sfyra Chelona Porfyrogennitos Porfyrogenis Porfyros Mavrogenis Savatogennimenos Kyriaki
	"Re Alexis" Prigkipessa Prigkips Voskos Poimenas Thanatos Ethnikos Olympia Olympiakos Athlitis Axios Antaxios Antartis Kallinikos Prespa Sofia "Agia Sofia"
	Vlacheia Vlachopoulla Vlacherna Kaffa Moldavia Vulgaria Servia Mavrovunion Ragusa Dyrrachion Kastoria Kastoras "Xylino Toichos" Xoanon Zoni Zallogos
	"O Choros tou Zallogou" Achaea Aigina Avydos Akanthos Agrinion Alexandretta Patra Antipatra Amisos Amarinthos Antigona Antigoni Amphipolis Antiocheia Anir
	Andros Apollonia Argos Elia Elaion Argyroupoli Tigris Tyros Foiniki Asklepios Pontos Pontios Varis Verga Vyvlos Vyzantion Vosporos Chersonesos Chalkis Kroton
	Kyrinea Dekeleia Delos Delphoi Mantis Tiresias "Mantis Tiresias" Dodona Doryaion Doryn Sarissa Dorystolon Stolos Elefsis Ephesos Epidavros Eretria Efvoia Gaza
	Gonios Goneas "Agios Onoufrios" "Agia Triada" Alikarnassos Helioupolis Ellinikon Ierapolis Ierapetra Chimera Iasos Ialysos Ithaki Kallipolis Kamares Kameiros
	Kipos Kipoi Kimmerikon Knidos Kios Kionas Knossos Kos Kourion Laodikeia Lapithos Lation Lefkada Lissos Lindos Magnesia Marathonas Massalia Megara Methoni Militos
	Mylasa Nafkratis Neapolis Nikea Nikopolis Nymfeon Nysa Odessos Olvia Orchomenos Erchomenos Palaikastro Pandosia Festos Pirreas Pella Phanagoria Pamflagonia Farnakia
	Faros Fillipoi Fillipopolis Platanos Fokida Fokea Elis Kampania Kampana Poseidonia Psychros Pseira Pylos Pylion Amforeas Krassoamfora Region Sinopi Sozopolis
	Pisidia Thassos Thespia Tragurion Trapeza "Agia Trapeza" Tripolis Troia Tylissos Tyra Vasilliki Zakros Vathypetra Megalopetra
}	

army_names = {
	"Anisíkheioni Army" "Army of $PROVINCE$"
}

fleet_names = {
	"Anisíkheioni Fleet"
}